…
## Instalação

``` r
if (!require("pacman")) install.packages("pacman")
pacman::p_load(xml2, rvest, dplyr, tidytext, tidyr, lubridate, stringr)
devtools::install_github("italocegatta/inmetdown")
```

## Uso

Para consultar as estações cadastradas na base de dados, utilize a função `aws_stations()`.

``` r
aws_stations()
# A tibble: 530 × 9
      id state                      city        lat       lon   alt      start status
   <chr> <chr>                     <chr>      <dbl>     <dbl> <dbl>     <date>  <chr>
1   C891    AA         Projeto Criosfera -84.000000 -79.49420  1285 2014-01-01     On
2   A108    AC           Cruzeiro do Sul  -7.610773 -72.68133   220 2015-05-14     On
3   A140    AC            Epitaciolândia -11.023752 -68.73518   225 2009-09-25     On
4   A138    AC                     Feijó  -8.142654 -70.34359   157 2009-09-24    Off
5   A137    AC      Marechal Thaumaturgo  -8.950008 -72.78678   221 2009-10-27    Off
6   A102    AC Parque Estadual Chandless  -9.358353 -69.92626   185 2008-08-05     On
7   A136    AC              Porto Walter  -8.267197 -72.74784   205 2009-10-29    Off
8   A104    AC                Rio Branco  -9.957844 -68.16517   224 2008-07-11     On
9   A353    AL                 Arapiraca  -9.804551 -36.61920   237 2008-04-27     On
10  A355    AL                  Coruripe -10.128482 -36.28635    82 2008-09-06     On
# ... with 520 more rows, and 1 more variables: url <chr>
```
…
